{
  "type": "object",
  "properties": {
    "patient_address": {
      "type": "object",
      "title": "Patient Address",
      "properties": {
        "home_address_1": {
          "title": "Home Address 1",
          "type": "string"
        },
        "home_address_2": {
          "title": "Home Address 2",
          "type": "string"
        },
        "state": {
          "$ref": "#/definitions/us_state",
          "title": "State",
          "description": ""
        },
        "city": {
          "$ref": "#/definitions/us_city",
          "title": "City",
          "description": ""
        },
        "zip_code": {
          "title": "Zip",
          "type": "string"
        }
      },
      "required": [
        "home_address_1",
        "state",
        "city",
        "zip_code"
      ]
    },
    "contact_information": {
      "type": "object",
      "title": "Contact Information",
      "properties": {
        "phone_number": {
          "$ref": "#/definitions/us_phone",
          "title": "Phone Number",
          "description": ""
        },
        "phone_number_type": {
          "$ref": "#/definitions/phone_type",
          "title": "Type",
          "description": ""
        },
        "alternate_phone_number": {
          "$ref": "#/definitions/us_phone",
          "title": "Alternate Phone Number",
          "description": ""
        },
        "alternate_phone_number_type": {
          "$ref": "#/definitions/phone_type",
          "title": "Type",
          "description": ""
        },
        "email": {
          "title": "Email",
          "type": "string",
          "format": "email"
        }
      },
      "required": [
        "phone_number",
        "phone_number_type",
        "email"
      ]
    },
    "patient_vitals": {
      "title": "Patient Vitals",
      "type": "object",
      "properties": {
        "bmi": {
          "title": "BMI",
          "type": "number"
        },
        "hba1c": {
          "title": "HbA1c",
          "type": "number"
        },
        "blood_pressure": {
          "title": "Blood Pressure",
          "type": "string"
        },
        "cholesterol": {
          "title": "Cholesterol",
          "type": "number"
        },
        "fasting_glucose": {
          "title": "Fasting Glucose",
          "type": "number"
        }
      },
      "dependencies": {},
      "required": []
    },
    "referring_physician": {
      "title": "Referring Physician",
      "type": "object",
      "properties": {
        "name": {
          "title": "Name",
          "type": "string"
        }
      },
      "dependencies": {},
      "required": [
        "name"
      ]
    },
    "referral_program": {
      "type": "object",
      "title": "Referral Program",
      "properties": {
        "organization": {
          "enum": [
            "Prevention Link",
            "Care Flow"
          ],
          "title": "Organization",
          "type": "string"
        },
        "programs": {
          "type": "array",
          "minItems": 1,
          "maxItems": 5,
          "uniqueItems": true,
          "items": {
            "type": "string",
            "enum": [
              "PreventionLink Cardiac Rehabilitation",
              "PreventionLink Community Health Worker",
              "PreventionLink Medication Therapy Manager",
              "PreventionLink Mobile App for Hypertension"
            ]
          },
          "title": "Programs"
        },
        "relevant_information": {
          "title": "Relevant Information",
          "type": "string",
          "description": "Please enter all relevant information that you would like relayed to the accepting provider below:"
        }
      },
      "dependencies": {},
      "required": [
        "organization",
        "programs",
        "relevant_information"
      ]
    },
    "patient_consent": {
      "title": "Patient Consent",
      "type": "boolean",
      "description": "Does the patient consent to having their information shared with the chosen prevention program and additional party processing the referral?",
      "default": false
    }
  },
  "dependencies": {},
  "required": [
    "patient_address",
    "contact_information",
    "patient_vitals",
    "referring_physician",
    "referral_program",
    "patient_consent"
  ],
  "definitions": {
    "us_phone": {
      "title": "US Phone",
      "type": "string",
      "pattern": "^\\(?([0-9]{3})\\)?[-.●]?([0-9]{3})[-.●]?([0-9]{4})$"
    },
    "phone_type": {
      "enum": [
        "Home",
        "Mobile",
        "Work"
      ],
      "title": "Phone Type",
      "type": "string"
    },
    "us_state": {
      "enum": [
        "AL - Alabama",
        "AK - Alaska",
        "AZ - Arizona",
        "AR - Arkansas",
        "CA - California",
        "CO - Colorado",
        "CT - Connecticut",
        "DE - Delaware",
        "DC - District of Columbia",
        "FL - Florida",
        "GA - Georgia",
        "HI - Hawaii",
        "ID - Idaho",
        "IL - Illinois",
        "IN - Indiana",
        "IA - Iowa",
        "KS - Kansas",
        "KY - Kentucky",
        "LA - Louisiana",
        "ME - Maine",
        "MD - Maryland",
        "MA - Massachusetts",
        "MI - Michigan",
        "MN - Minnesota",
        "MS - Mississippi",
        "MO - Missouri",
        "MT - Montana",
        "NE - Nebraska",
        "NV - Nevada",
        "NH - New Hampshire",
        "NJ - New Jersey",
        "NM - New Mexico",
        "NY - New York",
        "NC - North Carolina",
        "ND - North Dakota",
        "OH - Ohio",
        "OK - Oklahoma",
        "OR - Oregon",
        "PA - Pennsylvania",
        "RI - Rhode Island",
        "SC - South Carolina",
        "SD - South Dakota",
        "TN - Tennessee",
        "TX - Texas",
        "UT - Utah",
        "VT - Vermont",
        "VA - Virginia",
        "WA - Washington",
        "WV - West Virginia",
        "WI - Wisconsin",
        "WY - Wyoming"
      ],
      "title": "US State",
      "type": "string"
    },
    "us_city": {
      "enum": [
        "Abbeville",
        "Aberdeen",
        "Abilene",
        "Abingdon",
        "Abington",
        "Acoma",
        "Ada",
        "Adams",
        "Adrian",
        "Aiken",
        "Ajo",
        "Akron",
        "Alameda",
        "Alamogordo",
        "Alamosa",
        "Albany",
        "Albert Lea",
        "Albuquerque",
        "Alcoa",
        "Alexander City",
        "Alexandria",
        "Alhambra",
        "Aliquippa",
        "Allentown",
        "Alliance",
        "Alma",
        "Alpine",
        "Alta",
        "Alton",
        "Altoona",
        "Altus",
        "Alva",
        "Amana Colonies",
        "Amarillo",
        "Ambridge",
        "American Fork",
        "Americus",
        "Ames",
        "Amesbury",
        "Amherst",
        "Amsterdam",
        "Anaconda",
        "Anacortes",
        "Anadarko",
        "Anaheim",
        "Anchorage",
        "Andalusia",
        "Anderson",
        "Andersonville",
        "Andover",
        "Ann Arbor",
        "Annapolis",
        "Anniston",
        "Ansonia",
        "Antioch",
        "Apalachicola",
        "Appleton",
        "Arcadia",
        "Ardmore",
        "Arkadelphia",
        "Arkansas City",
        "Arkansas Post",
        "Arlington",
        "Arlington Heights",
        "Artesia",
        "Arthur",
        "Asbury Park",
        "Asheboro",
        "Asheville",
        "Ashland",
        "Ashtabula",
        "Aspen",
        "Astoria",
        "Atchison",
        "Athens",
        "Athol",
        "Atlanta",
        "Atlantic City",
        "Atmore",
        "Attleboro",
        "Auburn",
        "Augusta",
        "Aurora",
        "Austin",
        "Avondale",
        "Babylon",
        "Bainbridge",
        "Baker City",
        "Bakersfield",
        "Baltimore",
        "Bangor",
        "Bar Harbor",
        "Baraboo",
        "Barberton",
        "Barbourville",
        "Bardstown",
        "Barnstable",
        "Barre",
        "Barrington",
        "Barstow",
        "Bartlesville",
        "Bartow",
        "Bastrop",
        "Batavia",
        "Batesville",
        "Bath",
        "Baton Rouge",
        "Battle Creek",
        "Bay City",
        "Bay Saint Louis",
        "Bayonne",
        "Baytown",
        "Beacon",
        "Beatrice",
        "Beaufort",
        "Beaumont",
        "Beaverton",
        "Beckley",
        "Bedford",
        "Belen",
        "Belfast",
        "Belle Fourche",
        "Belle Glade",
        "Bellefontaine",
        "Belleville",
        "Bellevue",
        "Bellingham",
        "Bellows Falls",
        "Belmont",
        "Beloit",
        "Belvidere",
        "Bemidji",
        "Bend",
        "Bennington",
        "Benton",
        "Benton Harbor",
        "Berea",
        "Berkeley",
        "Berlin",
        "Bessemer",
        "Bethany",
        "Bethesda-Chevy Chase",
        "Bethlehem",
        "Beverly",
        "Beverly Hills",
        "Biddeford",
        "Big Spring",
        "Billings",
        "Biloxi",
        "Binghamton",
        "Birmingham",
        "Bisbee",
        "Bismarck",
        "Blackfoot",
        "Blairsville",
        "Bloomfield",
        "Bloomfield Hills",
        "Bloomington",
        "Bloomsburg",
        "Bluefield",
        "Blytheville",
        "Boca Raton",
        "Bogalusa",
        "Boise",
        "Bonners Ferry",
        "Boone",
        "Boonesborough",
        "Boonville",
        "Boothbay Harbor",
        "Bordentown",
        "Borger",
        "Bossier City",
        "Boston",
        "Boulder",
        "Boulder City",
        "Bound Brook",
        "Bountiful",
        "Bourne",
        "Bowie",
        "Bowling Green",
        "Boys Town",
        "Bozeman",
        "Bradenton",
        "Bradford",
        "Brainerd",
        "Braintree",
        "Branford",
        "Branson",
        "Brattleboro",
        "Brea",
        "Breckenridge",
        "Bremerton",
        "Bridgeport",
        "Bridgeton",
        "Brigham City",
        "Brighton",
        "Bristol",
        "Brockton",
        "Bronx",
        "Brookfield",
        "Brookings",
        "Brookline",
        "Brooklyn",
        "Brownsville",
        "Brunswick",
        "Bryan",
        "Buckhannon",
        "Buena Park",
        "Buffalo",
        "Burbank",
        "Burlington",
        "Burns",
        "Butte",
        "Cadillac",
        "Cahokia",
        "Cairo",
        "Calais",
        "Caldwell",
        "Calexico",
        "Calhoun",
        "Calistoga",
        "Calumet City",
        "Cambridge",
        "Camden",
        "Campbellsville",
        "Canon City",
        "Canton",
        "Canyon",
        "Cape Coral",
        "Cape Girardeau",
        "Cape May",
        "Carbondale",
        "Caribou",
        "Carlinville",
        "Carlisle",
        "Carlsbad",
        "Carmel",
        "Carrollton",
        "Carson City",
        "Carthage",
        "Casa Grande",
        "Casper",
        "Castine",
        "Catonsville",
        "Cedar City",
        "Cedar Falls",
        "Cedar Rapids",
        "Central City",
        "Central Falls",
        "Centralia",
        "Chadron",
        "Chambersburg",
        "Champaign",
        "Chandler",
        "Chanute",
        "Chapel Hill",
        "Charles City",
        "Charles Town",
        "Charleston",
        "Charlestown",
        "Charlevoix",
        "Charlotte",
        "Charlottesville",
        "Chattanooga",
        "Chautauqua",
        "Cheboygan",
        "Cheektowaga",
        "Chelmsford",
        "Chelsea",
        "Cherokee",
        "Chesapeake",
        "Chester",
        "Cheyenne",
        "Chicago",
        "Chicago Heights",
        "Chickasaw",
        "Chickasha",
        "Chico",
        "Chicopee",
        "Chillicothe",
        "Chula Vista",
        "Cicero",
        "Cincinnati",
        "Clanton",
        "Claremont",
        "Claremore",
        "Clarksburg",
        "Clarksdale",
        "Clarksville",
        "Clayton",
        "Clearfield",
        "Clearwater",
        "Cleburne",
        "Cleveland",
        "Cleveland Heights",
        "Clifton",
        "Climax",
        "Clinton",
        "Clovis",
        "Cocoa Beach",
        "Cocoa-Rockledge",
        "Cody",
        "Coeur d’Alene",
        "Coffeyville",
        "Cohasset",
        "Cohoes",
        "College Park",
        "College Station",
        "Collinsville",
        "Colorado Springs",
        "Columbia",
        "Columbus",
        "Compton",
        "Concord",
        "Coney Island",
        "Conneaut",
        "Connersville",
        "Conway",
        "Cookeville",
        "Cooperstown",
        "Coos Bay",
        "Coral Gables",
        "Cordova",
        "Corinth",
        "Corning",
        "Corona",
        "Coronado",
        "Corpus Christi",
        "Cortez",
        "Cortland",
        "Corvallis",
        "Corydon",
        "Costa Mesa",
        "Coulee Dam",
        "Council Bluffs",
        "Council Grove",
        "Coupeville",
        "Coventry",
        "Covington",
        "Cranford",
        "Cranston",
        "Crawfordsville",
        "Cripple Creek",
        "Crookston",
        "Crossett",
        "Crown Point",
        "Crystal City",
        "Cullman",
        "Culver City",
        "Cumberland",
        "Cushing",
        "Custer",
        "Cuyahoga Falls",
        "Dahlonega",
        "Dallas",
        "Dalton",
        "Daly City",
        "Danbury",
        "Danvers",
        "Danville",
        "Darien",
        "Darlington",
        "Dartmouth",
        "Davenport",
        "Davis",
        "Dayton",
        "Daytona Beach",
        "De Land",
        "De Smet",
        "Deadwood",
        "Dearborn",
        "Decatur",
        "Dedham",
        "Deerfield Beach",
        "Defiance",
        "DeKalb",
        "Del Rio",
        "Delaware",
        "Delray Beach",
        "Delta",
        "Deming",
        "Demopolis",
        "Denison",
        "Dennis",
        "Denton",
        "Denver",
        "Derby",
        "Derry",
        "Des Moines",
        "Des Plaines",
        "Detroit",
        "Devils Lake",
        "Dickinson",
        "Dillon",
        "Dixon",
        "Dodge City",
        "Dothan",
        "Douglas",
        "Dover",
        "Downey",
        "Dubuque",
        "Duluth",
        "Duncan",
        "Dunkirk",
        "Durango",
        "Durant",
        "Durham",
        "Duxbury",
        "Eagle Pass",
        "East Aurora",
        "East Chicago",
        "East Cleveland",
        "East Greenwich",
        "East Hampton",
        "East Hartford",
        "East Haven",
        "East Lansing",
        "East Liverpool",
        "East Moline",
        "East Orange",
        "East Point",
        "East Providence",
        "East Saint Louis",
        "Eastchester",
        "Eastham",
        "Easton",
        "Eastpointe",
        "Eastport",
        "Eau Claire",
        "Ecorse",
        "Edenton",
        "Edgartown",
        "Edinburg",
        "Edison",
        "Edmond",
        "Effingham",
        "El Centro",
        "El Cerrito",
        "El Dorado",
        "El Monte",
        "El Paso",
        "El Reno",
        "Elgin",
        "Elizabeth",
        "Elizabeth City",
        "Elizabethton",
        "Elizabethtown",
        "Elk City",
        "Elkhart",
        "Elkins",
        "Elko",
        "Elkton",
        "Ellensburg",
        "Ellsworth",
        "Elmhurst",
        "Elmira",
        "Elwood",
        "Ely",
        "Elyria",
        "Emmitsburg",
        "Emporia",
        "Enfield",
        "Englewood",
        "Enid",
        "Enterprise",
        "Ephrata",
        "Erie",
        "Escanaba",
        "Escondido",
        "Essex",
        "Estes Park",
        "Estherville",
        "Euclid",
        "Eufaula",
        "Eugene",
        "Eureka",
        "Evanston",
        "Evansville",
        "Eveleth",
        "Everett",
        "Excelsior Springs",
        "Exeter",
        "Fairbanks",
        "Fairfax",
        "Fairfield",
        "Fairhaven",
        "Fairmont",
        "Fall River",
        "Fallon",
        "Falls Church",
        "Falmouth",
        "Fargo",
        "Faribault",
        "Farmington",
        "Fayetteville",
        "Fergus Falls",
        "Ferguson",
        "Fernandina Beach",
        "Fillmore",
        "Findlay",
        "Fitchburg",
        "Fitzgerald",
        "Flagstaff",
        "Flint",
        "Florence",
        "Florissant",
        "Flushing",
        "Fond du Lac",
        "Fontana",
        "Forest Hills",
        "Forrest City",
        "Fort Benton",
        "Fort Collins",
        "Fort Dodge",
        "Fort Kent",
        "Fort Lauderdale",
        "Fort Lee",
        "Fort Morgan",
        "Fort Myers",
        "Fort Payne",
        "Fort Pierce",
        "Fort Scott",
        "Fort Smith",
        "Fort Valley",
        "Fort Walton Beach",
        "Fort Wayne",
        "Fort Worth",
        "Framingham",
        "Frankfort",
        "Franklin",
        "Frederick",
        "Fredericksburg",
        "Fredonia",
        "Freeport",
        "Fremont",
        "French Lick",
        "Fresno",
        "Fullerton",
        "Fulton",
        "Gadsden",
        "Gaffney",
        "Gainesville",
        "Galena",
        "Galesburg",
        "Gallatin",
        "Gallipolis",
        "Gallup",
        "Galveston",
        "Garden City",
        "Garden Grove",
        "Gardiner",
        "Garland",
        "Gary",
        "Gastonia",
        "Gatlinburg",
        "Geneva",
        "Genoa",
        "Georgetown",
        "Germantown",
        "Gettysburg",
        "Gila Bend",
        "Gillette",
        "Glassboro",
        "Glen Ellyn",
        "Glendale",
        "Glendive",
        "Glens Falls",
        "Glenview",
        "Glenwood Springs",
        "Globe",
        "Gloucester",
        "Gloversville",
        "Golden",
        "Goldfield",
        "Goldsboro",
        "Goliad",
        "Goshen",
        "Grafton",
        "Grand Forks",
        "Grand Haven",
        "Grand Island",
        "Grand Junction",
        "Grand Rapids",
        "Granite City",
        "Grants",
        "Grants Pass",
        "Grayling",
        "Great Barrington",
        "Great Bend",
        "Great Falls",
        "Great Neck",
        "Greeley",
        "Green Bay",
        "Green River",
        "Greenbelt",
        "Greeneville",
        "Greenfield",
        "Greensboro",
        "Greensburg",
        "Greenville",
        "Greenwich",
        "Greenwood",
        "Grenada",
        "Gretna",
        "Grinnell",
        "Grosse Pointe",
        "Groton",
        "Guilford",
        "Gulfport",
        "Gunnison",
        "Guntersville",
        "Guthrie",
        "Guymon",
        "Hackensack",
        "Haddonfield",
        "Hagerstown",
        "Haines",
        "Halifax",
        "Hallandale Beach",
        "Hamden",
        "Hamilton",
        "Hammond",
        "Hammondsport",
        "Hampton",
        "Hanalei",
        "Hancock",
        "Hannibal",
        "Hanover",
        "Harlan",
        "Harlem",
        "Harlingen",
        "Harmony",
        "Harpers Ferry",
        "Harrisburg",
        "Harrison",
        "Harrodsburg",
        "Hartford",
        "Hartsville",
        "Harwich",
        "Hastings",
        "Hattiesburg",
        "Haverhill",
        "Havre",
        "Hays",
        "Hayward",
        "Hazard",
        "Hazleton",
        "Heber City",
        "Helena",
        "Hempstead",
        "Henderson",
        "Herkimer",
        "Herrin",
        "Hershey",
        "Hialeah",
        "Hibbing",
        "Hickory",
        "High Point",
        "Highland Park",
        "Hillsboro",
        "Hillsborough",
        "Hilo",
        "Hingham",
        "Hinton",
        "Hobart",
        "Hobbs",
        "Hoboken",
        "Hodgenville",
        "Holdenville",
        "Holland",
        "Holly Springs",
        "Hollywood",
        "Holyoke",
        "Homer",
        "Homestead",
        "Honaunau",
        "Honesdale",
        "Honolulu",
        "Hood River",
        "Hope",
        "Hopewell",
        "Hopkinsville",
        "Hoquiam",
        "Hot Springs",
        "Houghton",
        "Houlton",
        "Houma",
        "Houston",
        "Hudson",
        "Hugo",
        "Huntington",
        "Huntington Beach",
        "Huntsville",
        "Huron",
        "Hutchinson",
        "Hyannis",
        "Hyattsville",
        "Hyde Park",
        "Idaho City",
        "Idaho Falls",
        "Ilion",
        "Independence",
        "Indiana",
        "Indianapolis",
        "Indianola",
        "Indio",
        "Inglewood",
        "Interlochen",
        "International Falls",
        "Iowa City",
        "Ipswich",
        "Iron Mountain",
        "Ironwood",
        "Irvine",
        "Irving",
        "Irvington",
        "Ishpeming",
        "Ithaca",
        "Jackson",
        "Jacksonville",
        "Jamestown",
        "Janesville",
        "Jasper",
        "Jeannette",
        "Jefferson City",
        "Jeffersonville",
        "Jersey City",
        "Jim Thorpe",
        "John Day",
        "Johnson City",
        "Johnstown",
        "Joliet",
        "Jonesboro",
        "Jonesborough",
        "Joplin",
        "Junction City",
        "Juneau",
        "Kahului",
        "Kalamazoo",
        "Kalispell",
        "Kanab",
        "Kaneohe",
        "Kankakee",
        "Kansas City",
        "Kapaa",
        "Kaskaskia",
        "Kawaihae",
        "Kearney",
        "Keene",
        "Kellogg",
        "Kelso",
        "Kennebunkport",
        "Kennewick",
        "Kenosha",
        "Kent",
        "Keokuk",
        "Ketchikan",
        "Kettering",
        "Kewanee",
        "Key West",
        "Keyser",
        "Kilgore",
        "Killeen",
        "Kingman",
        "Kingsport",
        "Kingston",
        "Kingsville",
        "Kinston",
        "Kirksville",
        "Kittery",
        "Kitty Hawk",
        "Klamath Falls",
        "Knoxville",
        "Kodiak",
        "Kokomo",
        "Kotzebue",
        "La Crosse",
        "La Grande",
        "La Grange",
        "La Habra",
        "La Junta",
        "La Salle",
        "Lackawanna",
        "Laconia",
        "Lafayette",
        "Laguna Beach",
        "Lahaina",
        "Laie",
        "Lake Charles",
        "Lake City",
        "Lake Forest",
        "Lake Geneva",
        "Lake Havasu City",
        "Lake Oswego",
        "Lake Placid",
        "Lake Wales",
        "Lakehurst",
        "Lakeland",
        "Lakeview",
        "Lakewood",
        "Lamar",
        "Lancaster",
        "Lander",
        "Lansing",
        "Laramie",
        "Laredo",
        "Largo",
        "Las Cruces",
        "Las Vegas",
        "Laurel",
        "Lawrence",
        "Lawton",
        "Layton",
        "Lead",
        "Leadville",
        "Leavenworth",
        "Lebanon",
        "Lehi",
        "Lenox",
        "Leominster",
        "Levittown",
        "Lewes",
        "Lewisburg",
        "Lewiston",
        "Lewistown",
        "Lexington",
        "Liberal",
        "Libertyville",
        "Lima",
        "Lincoln",
        "Lisle",
        "Litchfield",
        "Little Falls",
        "Little Rock",
        "Littleton",
        "Livermore",
        "Livingston",
        "Livonia",
        "Lock Haven",
        "Lockport",
        "Lodi",
        "Logan",
        "Lombard",
        "Lompoc",
        "Long Beach",
        "Long Branch",
        "Longmont",
        "Longview",
        "Lorain",
        "Los Alamos",
        "Los Angeles",
        "Louisville",
        "Loveland",
        "Lovington",
        "Lowell",
        "Lower Southampton",
        "Lubbock",
        "Lubec",
        "Ludington",
        "Ludlow",
        "Lufkin",
        "Lumberton",
        "Lynchburg",
        "Lynn",
        "Machias",
        "Mackinaw City",
        "Macomb",
        "Macon",
        "Madison",
        "Magnolia",
        "Malden",
        "Malibu",
        "Mamaroneck",
        "Manassas",
        "Manchester",
        "Mandan",
        "Manhattan",
        "Manistee",
        "Manitowoc",
        "Mankato",
        "Mansfield",
        "Manti",
        "Marblehead",
        "Marietta",
        "Marinette",
        "Marion",
        "Marlborough",
        "Marquette",
        "Marshall",
        "Martinez",
        "Martins Ferry",
        "Martinsburg",
        "Martinsville",
        "Marysville",
        "Maryville",
        "Mason City",
        "Massena",
        "Massillon",
        "Mattoon",
        "Mayfield",
        "Maysville",
        "McAlester",
        "McAllen",
        "McCook",
        "McKeesport",
        "McKinney",
        "McMinnville",
        "McPherson",
        "Meadville",
        "Medford",
        "Medicine Lodge",
        "Melbourne",
        "Memphis",
        "Menasha",
        "Menlo Park",
        "Menominee",
        "Mentor",
        "Merced",
        "Meriden",
        "Meridian",
        "Mesa",
        "Mesquite",
        "Mexico",
        "Miami",
        "Miami Beach",
        "Michigan City",
        "Middlebury",
        "Middlesboro",
        "Middletown",
        "Midland",
        "Midwest City",
        "Milan",
        "Milbank",
        "Miles City",
        "Milford",
        "Millburn",
        "Milledgeville",
        "Millville",
        "Milton",
        "Milwaukee",
        "Minden",
        "Mineola",
        "Minneapolis",
        "Minot",
        "Mishawaka",
        "Mission",
        "Missoula",
        "Mitchell",
        "Moab",
        "Mobile",
        "Mobridge",
        "Modesto",
        "Moline",
        "Monett",
        "Monmouth",
        "Monroe",
        "Monroeville",
        "Montclair",
        "Monterey",
        "Montgomery",
        "Monticello",
        "Montpelier",
        "Montrose",
        "Moore",
        "Moorhead",
        "Morehead City",
        "Morgan City",
        "Morganton",
        "Morgantown",
        "Morrilton",
        "Morristown",
        "Moscow",
        "Moses Lake",
        "Moundsville",
        "Mount Clemens",
        "Mount Holly",
        "Mount Pleasant",
        "Mount Vernon",
        "Mountain View",
        "Muncie",
        "Mundelein",
        "Murfreesboro",
        "Murray",
        "Muscatine",
        "Muskegon",
        "Muskogee",
        "Myrtle Beach",
        "Mystic",
        "Nacogdoches",
        "Nags Head",
        "Nahant",
        "Nampa",
        "Nanticoke",
        "Naperville",
        "Naples",
        "Nappanee",
        "Narragansett",
        "Nashua",
        "Nashville",
        "Natchez",
        "Natchitoches",
        "Natick",
        "Naugatuck",
        "Nauvoo",
        "Nebraska City",
        "Needles",
        "Neenah",
        "Neosho",
        "Nephi",
        "New Albany",
        "New Bedford",
        "New Bern",
        "New Braunfels",
        "New Britain",
        "New Brunswick",
        "New Castle",
        "New Glarus",
        "New Harmony",
        "New Haven",
        "New Hope",
        "New Iberia",
        "New Kensington",
        "New London",
        "New Madrid",
        "New Market",
        "New Martinsville",
        "New Milford",
        "New Orleans",
        "New Paltz",
        "New Philadelphia",
        "New Rochelle",
        "New Smyrna Beach",
        "New Ulm",
        "New Windsor",
        "New York City",
        "Newark",
        "Newberg",
        "Newburgh",
        "Newburyport",
        "Newcastle",
        "Newport",
        "Newport Beach",
        "Newport News",
        "Newton",
        "Niagara Falls",
        "Niles",
        "Nogales",
        "Nome",
        "Norfolk",
        "Normal",
        "Norman",
        "Norris",
        "Norristown",
        "North Adams",
        "North Chicago",
        "North College Hill",
        "North Haven",
        "North Hempstead",
        "North Kingstown",
        "North Las Vegas",
        "North Little Rock",
        "North Platte",
        "Northampton",
        "Northfield",
        "Norton",
        "Norwalk",
        "Norwich",
        "Norwood",
        "Novato",
        "Nyack",
        "Oak Harbor",
        "Oak Park",
        "Oak Ridge",
        "Oakland",
        "Oberlin",
        "Ocala",
        "Ocean City",
        "Ocean Springs",
        "Oceanside",
        "Oconto",
        "Odessa",
        "Ogden",
        "Ogdensburg",
        "Oil City",
        "Ojai",
        "Oklahoma City",
        "Okmulgee",
        "Olathe",
        "Old Saybrook",
        "Olean",
        "Olympia",
        "Omaha",
        "Oneida",
        "Oneonta",
        "Ontario",
        "Opelika",
        "Opelousas",
        "Oraibi",
        "Orange",
        "Orangeburg",
        "Orderville",
        "Oregon",
        "Oregon City",
        "Orem",
        "Orlando",
        "Ormond Beach",
        "Orono",
        "Oroville",
        "Osawatomie",
        "Osceola",
        "Oshkosh",
        "Oskaloosa",
        "Ossining",
        "Oswego",
        "Ottawa",
        "Ottumwa",
        "Ouray",
        "Overland Park",
        "Owatonna",
        "Owensboro",
        "Oxford",
        "Oxnard",
        "Oyster Bay",
        "Ozark",
        "Pacific Grove",
        "Paducah",
        "Pagosa Springs",
        "Painesville",
        "Palatine",
        "Palatka",
        "Palm Bay",
        "Palm Beach",
        "Palm Springs",
        "Palmdale",
        "Palmer",
        "Palmyra",
        "Palo Alto",
        "Pampa",
        "Panama City",
        "Panguitch",
        "Paris",
        "Park City",
        "Park Forest",
        "Park Ridge",
        "Parkersburg",
        "Parma",
        "Parsippany–Troy Hills",
        "Pasadena",
        "Pascagoula",
        "Pasco",
        "Pass Christian",
        "Passaic",
        "Paterson",
        "Pauls Valley",
        "Pawhuska",
        "Pawtucket",
        "Payson",
        "Peabody",
        "Pecos",
        "Peekskill",
        "Pekin",
        "Pendleton",
        "Pensacola",
        "Peoria",
        "Perry",
        "Perth Amboy",
        "Peru",
        "Peshtigo",
        "Petaluma",
        "Peterborough",
        "Petersburg",
        "Petoskey",
        "Pharr",
        "Phenix City",
        "Philadelphia",
        "Philippi",
        "Phoenix",
        "Phoenixville",
        "Pierre",
        "Pine Bluff",
        "Pinehurst",
        "Pipestone",
        "Piqua",
        "Pittsburg",
        "Pittsburgh",
        "Pittsfield",
        "Plainfield",
        "Plains",
        "Plainview",
        "Plano",
        "Plattsburgh",
        "Plattsmouth",
        "Plymouth",
        "Pocatello",
        "Point Pleasant",
        "Point Roberts",
        "Pomona",
        "Pompano Beach",
        "Ponca City",
        "Pontiac",
        "Port Angeles",
        "Port Arthur",
        "Port Gibson",
        "Port Hueneme",
        "Port Huron",
        "Port Lavaca",
        "Port Orford",
        "Port Washington",
        "Portage",
        "Portales",
        "Portland",
        "Portsmouth",
        "Potsdam",
        "Pottstown",
        "Pottsville",
        "Poughkeepsie",
        "Powell",
        "Prairie du Chien",
        "Prescott",
        "Presque Isle",
        "Price",
        "Prichard",
        "Priest River",
        "Princeton",
        "Prineville",
        "Providence",
        "Provincetown",
        "Provo",
        "Pryor",
        "Pueblo",
        "Pullman",
        "Put-in-Bay",
        "Puyallup",
        "Queens",
        "Quincy",
        "Racine",
        "Raleigh",
        "Rancho Cucamonga",
        "Randolph",
        "Rantoul",
        "Rapid City",
        "Raton",
        "Rawlins",
        "Reading",
        "Red Bluff",
        "Red Cloud",
        "Red Wing",
        "Redding",
        "Redlands",
        "Redmond",
        "Redondo Beach",
        "Redwood City",
        "Reedsport",
        "Reno",
        "Rensselaer",
        "Renton",
        "Reston",
        "Revere",
        "Rexburg",
        "Rhinelander",
        "Richardson",
        "Richland",
        "Richmond",
        "Ridgewood",
        "Ripon",
        "River Forest",
        "Riverside",
        "Riverton",
        "Roanoke",
        "Rochester",
        "Rock Hill",
        "Rock Island",
        "Rock Springs",
        "Rockford",
        "Rockland",
        "Rockville",
        "Rocky Mount",
        "Rogers",
        "Rolla",
        "Rome",
        "Romney",
        "Roseburg",
        "Roselle",
        "Roseville",
        "Roswell",
        "Rotterdam",
        "Royal Oak",
        "Rugby",
        "Rumford",
        "Ruston",
        "Rutherford",
        "Rutland",
        "Rye",
        "Saco",
        "Sacramento",
        "Sag Harbor",
        "Saginaw",
        "Saint Albans",
        "Saint Augustine",
        "Saint Charles",
        "Saint Cloud",
        "Saint George",
        "Saint Ignace",
        "Saint Johnsbury",
        "Saint Joseph",
        "Saint Louis",
        "Saint Martinville",
        "Saint Marys City",
        "Saint Paul",
        "Saint Petersburg",
        "Sainte Genevieve",
        "Salem",
        "Salina",
        "Salinas",
        "Salisbury",
        "Sallisaw",
        "Salt Lake City",
        "San Angelo",
        "San Antonio",
        "San Bernardino",
        "San Clemente",
        "San Diego",
        "San Felipe",
        "San Fernando",
        "San Francisco",
        "San Gabriel",
        "San Jose",
        "San Juan Capistrano",
        "San Leandro",
        "San Luis Obispo",
        "San Marcos",
        "San Marino",
        "San Mateo",
        "San Pedro",
        "San Rafael",
        "San Simeon",
        "Sand Springs",
        "Sandusky",
        "Sandwich",
        "Sanford",
        "Santa Ana",
        "Santa Barbara",
        "Santa Clara",
        "Santa Clarita",
        "Santa Claus",
        "Santa Cruz",
        "Santa Fe",
        "Santa Monica",
        "Santa Rosa",
        "Sapulpa",
        "Saranac Lake",
        "Sarasota",
        "Saratoga Springs",
        "Saugus",
        "Sauk Centre",
        "Sault Sainte Marie",
        "Sausalito",
        "Savannah",
        "Scarborough",
        "Scarsdale",
        "Schenectady",
        "Scottsboro",
        "Scottsdale",
        "Scranton",
        "Searcy",
        "Seaside",
        "Seattle",
        "Sebring",
        "Sedalia",
        "Selma",
        "Seminole",
        "Seneca Falls",
        "Seward",
        "Seymour",
        "Shaker Heights",
        "Shamokin",
        "Sharon",
        "Shawnee",
        "Shawneetown",
        "Sheboygan",
        "Sheffield",
        "Shelby",
        "Shelbyville",
        "Shelton",
        "Shepherdstown",
        "Sheridan",
        "Sherman",
        "Shiprock",
        "Shreveport",
        "Sidney",
        "Sierra Vista",
        "Silver City",
        "Silver Spring",
        "Silverton",
        "Simi Valley",
        "Simsbury",
        "Sioux City",
        "Sioux Falls",
        "Sitka",
        "Skagway",
        "Skokie",
        "Smith Center",
        "Smyrna",
        "Socorro",
        "Somersworth",
        "Somerville",
        "Sonoma",
        "South Bend",
        "South Charleston",
        "South Hadley",
        "South Holland",
        "South Kingstown",
        "South Orange Village",
        "South Saint Paul",
        "South San Francisco",
        "Southampton",
        "Southington",
        "Spanish Fork",
        "Sparks",
        "Spartanburg",
        "Spearfish",
        "Spokane",
        "Spring Green",
        "Springfield",
        "Springville",
        "Stamford",
        "Starkville",
        "State College",
        "Staten Island",
        "Staunton",
        "Steamboat Springs",
        "Sterling",
        "Steubenville",
        "Stevens Point",
        "Stillwater",
        "Stockbridge",
        "Stockton",
        "Stonington",
        "Stony Brook",
        "Stony Point",
        "Stoughton",
        "Stratford",
        "Streator",
        "Stroudsburg",
        "Sturbridge",
        "Sturgeon Bay",
        "Sturgis",
        "Stuttgart",
        "Sudbury",
        "Suffolk",
        "Summersville",
        "Summit",
        "Sumter",
        "Sun Valley",
        "Sunbury",
        "Sunnyvale",
        "Superior",
        "Susanville",
        "Swarthmore",
        "Sweetwater",
        "Sylacauga",
        "Syracuse",
        "Tacoma",
        "Tahlequah",
        "Takoma Park",
        "Talladega",
        "Tallahassee",
        "Tamaqua",
        "Tampa",
        "Taos",
        "Tarpon Springs",
        "Tarrytown",
        "Taunton",
        "Telluride",
        "Tempe",
        "Temple",
        "Ten Sleep",
        "Terre Haute",
        "Tewksbury",
        "Texarkana",
        "Texas City",
        "The Dalles",
        "The Village",
        "Thermopolis",
        "Thibodaux",
        "Thousand Oaks",
        "Ticonderoga",
        "Tiffin",
        "Tillamook",
        "Titusville",
        "Tiverton",
        "Toccoa",
        "Toledo",
        "Tombstone",
        "Tonawanda",
        "Tooele",
        "Topeka",
        "Torrance",
        "Torrington",
        "Totowa",
        "Towson",
        "Traverse City",
        "Trenton",
        "Trinidad",
        "Troy",
        "Truro",
        "Truth or Consequences",
        "Tucson",
        "Tucumcari",
        "Tullahoma",
        "Tulsa",
        "Tupelo",
        "Turlock",
        "Tuscaloosa",
        "Tuscumbia",
        "Tuskegee",
        "Twin Falls",
        "Tyler",
        "Ukiah",
        "Union",
        "Union City",
        "Uniontown",
        "Urbana",
        "Utica",
        "Uvalde",
        "Vail",
        "Valdez",
        "Valdosta",
        "Vallejo",
        "Valley City",
        "Valparaiso",
        "Van Buren",
        "Vancouver",
        "Vandalia",
        "Venice",
        "Ventura",
        "Vermillion",
        "Vernal",
        "Vicksburg",
        "Victoria",
        "Victorville",
        "Vincennes",
        "Vineland",
        "Vinita",
        "Virden",
        "Virginia",
        "Virginia Beach",
        "Virginia City",
        "Visalia",
        "Wabash",
        "Waco",
        "Wahiawa",
        "Wahpeton",
        "Wailuku",
        "Waimea",
        "Walla Walla",
        "Wallingford",
        "Walnut Creek",
        "Walpi",
        "Walsenburg",
        "Warm Springs",
        "Warner Robins",
        "Warren",
        "Warrensburg",
        "Warwick",
        "Washington",
        "Waterbury",
        "Waterford",
        "Waterloo",
        "Watertown",
        "Waterville",
        "Watervliet",
        "Watkins Glen",
        "Watts",
        "Waukegan",
        "Waukesha",
        "Wausau",
        "Wauwatosa",
        "Waycross",
        "Wayne",
        "Waynesboro",
        "Weatherford",
        "Webster",
        "Webster City",
        "Weehawken",
        "Weirton",
        "Welch",
        "Wellesley",
        "Wellfleet",
        "Wellsburg",
        "Wenatchee",
        "West Allis",
        "West Bend",
        "West Bridgewater",
        "West Chester",
        "West Covina",
        "West Des Moines",
        "West Hartford",
        "West Haven",
        "West Lafayette",
        "West Memphis",
        "West New York",
        "West Orange",
        "West Palm Beach",
        "West Plains",
        "West Point",
        "West Seneca",
        "West Springfield",
        "Westerly",
        "Westfield",
        "Westminster",
        "Weston",
        "Westport",
        "Wethersfield",
        "Wewoka",
        "Weymouth",
        "Wheaton",
        "Wheeling",
        "White Plains",
        "White Springs",
        "White Sulphur Springs",
        "Whitman",
        "Whittier",
        "Wichita",
        "Wichita Falls",
        "Wickford",
        "Wilkes-Barre",
        "Williamsburg",
        "Williamson",
        "Williamsport",
        "Williamstown",
        "Willimantic",
        "Willingboro",
        "Williston",
        "Willmar",
        "Wilmette",
        "Wilmington",
        "Wilson",
        "Winchester",
        "Windham",
        "Window Rock",
        "Windsor",
        "Windsor Locks",
        "Winnemucca",
        "Winnetka",
        "Winona",
        "Winooski",
        "Winslow",
        "Winsted",
        "Winston-Salem",
        "Winter Haven",
        "Winter Park",
        "Wisconsin Dells",
        "Woburn",
        "Wood River",
        "Woodbridge",
        "Woodland",
        "Woods Hole",
        "Woodstock",
        "Woodward",
        "Woonsocket",
        "Wooster",
        "Worcester",
        "Worland",
        "Worthington",
        "Wyandotte",
        "Xenia",
        "Yakima",
        "Yankton",
        "Yazoo City",
        "Yellow Springs",
        "Yonkers",
        "Yorba Linda",
        "York",
        "Youngstown",
        "Ypsilanti",
        "Ysleta",
        "Yuba City",
        "Yuma",
        "Zanesville",
        "Zion"
      ],
      "title": "US City",
      "type": "string"
    }
  }
}
