{
  "patient_address": {
    "home_address_1": "1234 Integrations St",
    "state": "MD - Maryland",
    "city": "Baltimore",
    "zip_code": "21201"
  },
  "contact_information": {
    "phone_number": "667-213-1111",
    "phone_number_type": "Home",
    "alternate_phone_number": "3014434102",
    "alternate_phone_number_type": "Mobile",
    "email": "patient@email.service"
  },
  "patient_vitals": {
    "bmi": 25,
    "hba1c": 42,
    "blood_pressure": "120/80",
    "cholesterol": 160,
    "fasting_glucose": 126
  },
  "referring_physician": {
    "name": "Dr. Abel Lang"
  },
  "referral_program": {
    "organization": "Prevention Link",
    "programs": [
      "PreventionLink Community Health Worker",
      "PreventionLink Medication Therapy Manager"
    ],
    "relevant_information": "Lorem ipsum dolor sit amet, consectetur adipiscing elit. Praesent nec sapien et mi porta consectetur quis eu turpis. Praesent lacus lacus, ullamcorper in nulla eget, fringilla finibus ipsum. Curabitur fringilla ipsum at ipsum viverra, id sodales eros finibus. Nullam elementum magna id orci facilisis varius. Quisque efficitur consectetur urna in tincidunt. Aliquam vestibulum bibendum ante, eget dapibus magna molestie eget. Curabitur vestibulum volutpat lectus, ac varius quam mollis nec. Etiam bibendum dictum elit at tincidunt."
  },
  "patient_consent": true
}
